\relax 
\providecommand\zref@newlabel[2]{}
\providecommand\hyper@newdestlabel[2]{}
\abx@aux@sortscheme{none}
\abx@aux@refcontext{none/global/}
\catcode `:\active 
\catcode `;\active 
\catcode `!\active 
\catcode `?\active 
\providecommand\HyperFirstAtBeginDocument{\AtBeginDocument}
\HyperFirstAtBeginDocument{\ifx\hyper@anchor\@undefined
\global\let\oldcontentsline\contentsline
\gdef\contentsline#1#2#3#4{\oldcontentsline{#1}{#2}{#3}}
\global\let\oldnewlabel\newlabel
\gdef\newlabel#1#2{\newlabelxx{#1}#2}
\gdef\newlabelxx#1#2#3#4#5#6{\oldnewlabel{#1}{{#2}{#3}}}
\AtEndDocument{\ifx\hyper@anchor\@undefined
\let\contentsline\oldcontentsline
\let\newlabel\oldnewlabel
\fi}
\fi}
\global\let\hyper@last\relax 
\gdef\HyperFirstAtBeginDocument#1{#1}
\providecommand\HyField@AuxAddToFields[1]{}
\providecommand\HyField@AuxAddToCoFields[2]{}
\abx@aux@cite{bellissard}
\abx@aux@segm{0}{0}{bellissard}
\abx@aux@cite{diffractionLuck}
\abx@aux@segm{0}{0}{diffractionLuck}
\abx@aux@cite{codimSire}
\abx@aux@segm{0}{0}{codimSire}
\abx@aux@cite{baakegrimm}
\abx@aux@segm{0}{0}{baakegrimm}
\@writefile{toc}{\boolfalse {citerequest}\boolfalse {citetracker}\boolfalse {pagetracker}\boolfalse {backtracker}\relax }
\@writefile{lof}{\boolfalse {citerequest}\boolfalse {citetracker}\boolfalse {pagetracker}\boolfalse {backtracker}\relax }
\@writefile{lot}{\boolfalse {citerequest}\boolfalse {citetracker}\boolfalse {pagetracker}\boolfalse {backtracker}\relax }
\select@language{french}
\@writefile{toc}{\defcounter {refsection}{0}\relax }\@writefile{toc}{\select@language{french}}
\@writefile{lof}{\defcounter {refsection}{0}\relax }\@writefile{lof}{\select@language{french}}
\@writefile{lot}{\defcounter {refsection}{0}\relax }\@writefile{lot}{\select@language{french}}
\select@language{english}
\@writefile{toc}{\defcounter {refsection}{0}\relax }\@writefile{toc}{\select@language{english}}
\@writefile{lof}{\defcounter {refsection}{0}\relax }\@writefile{lof}{\select@language{english}}
\@writefile{lot}{\defcounter {refsection}{0}\relax }\@writefile{lot}{\select@language{english}}
\newlabel{eq:gl}{{1}{1}{Introduction}{equation.0.1}{}}
\newlabel{eq:glapprox}{{3}{1}{Introduction}{equation.0.3}{}}
\abx@aux@cite{light}
\abx@aux@segm{0}{0}{light}
\abx@aux@cite{polaritons}
\abx@aux@segm{0}{0}{polaritons}
\abx@aux@cite{Niu90}
\abx@aux@segm{0}{0}{Niu90}
\abx@aux@cite{Piechon95}
\abx@aux@segm{0}{0}{Piechon95}
\abx@aux@segm{0}{0}{Niu90}
\abx@aux@segm{0}{0}{Piechon95}
\abx@aux@cite{fiboperturbMace}
\abx@aux@segm{0}{0}{fiboperturbMace}
\@writefile{toc}{\defcounter {refsection}{0}\relax }\@writefile{toc}{\contentsline {section}{\numberline {1}Nearest neighbors tight-binding model on quasiperiodic chains}{2}{section.1}}
\@writefile{toc}{\defcounter {refsection}{0}\relax }\@writefile{toc}{\contentsline {section}{\numberline {2}Application: the Fibonacci quasicrystal}{2}{section.2}}
\@writefile{lof}{\defcounter {refsection}{0}\relax }\@writefile{lof}{\contentsline {figure}{\numberline {1}{\ignorespaces \relax \fontsize  {10}{12}\selectfont  \abovedisplayskip 11\p@ plus3\p@ minus6\p@ \abovedisplayshortskip \z@ plus3\p@ \belowdisplayshortskip 6.5\p@ plus3.5\p@ minus3\p@ \def \leftmargin \leftmargini \parsep =\z@ \topsep =6\p@ plus3\p@ minus3\p@ \itemsep =3\p@ plus2\p@ minus1\p@ {\leftmargin \leftmargini \topsep 9\p@ plus3\p@ minus5\p@ \parsep 4.5\p@ plus2\p@ minus\p@ \itemsep \parsep }\belowdisplayskip \abovedisplayskip {The gap labels of the first few Fibonacci approximants. Blue: stable gaps, red: transient gaps.}\relax }}{2}{figure.caption.2}}
\providecommand*\caption@xref[2]{\@setref\relax\@undefined{#1}}
\newlabel{fig:fibogaps}{{1}{2}{\small {The gap labels of the first few Fibonacci approximants. Blue: stable gaps, red: transient gaps.}\relax }{figure.caption.2}{}}
\@writefile{lof}{\defcounter {refsection}{0}\relax }\@writefile{lof}{\contentsline {figure}{\numberline {2}{\ignorespaces \relax \fontsize  {10}{12}\selectfont  \abovedisplayskip 11\p@ plus3\p@ minus6\p@ \abovedisplayshortskip \z@ plus3\p@ \belowdisplayshortskip 6.5\p@ plus3.5\p@ minus3\p@ \def \leftmargin \leftmargini \parsep =\z@ \topsep =6\p@ plus3\p@ minus3\p@ \itemsep =3\p@ plus2\p@ minus1\p@ {\leftmargin \leftmargini \topsep 9\p@ plus3\p@ minus5\p@ \parsep 4.5\p@ plus2\p@ minus\p@ \itemsep \parsep }\belowdisplayskip \abovedisplayskip {The a recursive construction of the Fibonacci spectrum.}\relax }}{2}{figure.caption.2}}
\newlabel{fig:fibospec}{{2}{2}{\small {The a recursive construction of the Fibonacci spectrum.}\relax }{figure.caption.2}{}}
\newlabel{eq:fibogaps}{{5}{2}{Application: the Fibonacci quasicrystal}{equation.2.5}{}}
\@writefile{toc}{\defcounter {refsection}{0}\relax }\@writefile{toc}{\contentsline {section}{\numberline {3}Transient and stable gaps}{3}{section.3}}
\@writefile{lof}{\defcounter {refsection}{0}\relax }\@writefile{lof}{\contentsline {figure}{\numberline {3}{\ignorespaces \relax \fontsize  {10}{12}\selectfont  \abovedisplayskip 11\p@ plus3\p@ minus6\p@ \abovedisplayshortskip \z@ plus3\p@ \belowdisplayshortskip 6.5\p@ plus3.5\p@ minus3\p@ \def \leftmargin \leftmargini \parsep =\z@ \topsep =6\p@ plus3\p@ minus3\p@ \itemsep =3\p@ plus2\p@ minus1\p@ {\leftmargin \leftmargini \topsep 9\p@ plus3\p@ minus5\p@ \parsep 4.5\p@ plus2\p@ minus\p@ \itemsep \parsep }\belowdisplayskip \abovedisplayskip {Fibonacci chain of $N_{16} = 987$ atoms.}\relax }}{3}{figure.caption.3}}
\newlabel{fig:width1}{{3}{3}{\small {Fibonacci chain of $N_{16} = 987$ atoms.}\relax }{figure.caption.3}{}}
\@writefile{lof}{\defcounter {refsection}{0}\relax }\@writefile{lof}{\contentsline {figure}{\numberline {4}{\ignorespaces \relax \fontsize  {10}{12}\selectfont  \abovedisplayskip 11\p@ plus3\p@ minus6\p@ \abovedisplayshortskip \z@ plus3\p@ \belowdisplayshortskip 6.5\p@ plus3.5\p@ minus3\p@ \def \leftmargin \leftmargini \parsep =\z@ \topsep =6\p@ plus3\p@ minus3\p@ \itemsep =3\p@ plus2\p@ minus1\p@ {\leftmargin \leftmargini \topsep 9\p@ plus3\p@ minus5\p@ \parsep 4.5\p@ plus2\p@ minus\p@ \itemsep \parsep }\belowdisplayskip \abovedisplayskip {Silver mean chain of $N_{10} = 1393$ atoms.}\relax }}{3}{figure.caption.3}}
\newlabel{fig:width2}{{4}{3}{\small {Silver mean chain of $N_{10} = 1393$ atoms.}\relax }{figure.caption.3}{}}
\@writefile{lof}{\defcounter {refsection}{0}\relax }\@writefile{lof}{\contentsline {figure}{\numberline {5}{\ignorespaces \relax \fontsize  {10}{12}\selectfont  \abovedisplayskip 11\p@ plus3\p@ minus6\p@ \abovedisplayshortskip \z@ plus3\p@ \belowdisplayshortskip 6.5\p@ plus3.5\p@ minus3\p@ \def \leftmargin \leftmargini \parsep =\z@ \topsep =6\p@ plus3\p@ minus3\p@ \itemsep =3\p@ plus2\p@ minus1\p@ {\leftmargin \leftmargini \topsep 9\p@ plus3\p@ minus5\p@ \parsep 4.5\p@ plus2\p@ minus\p@ \itemsep \parsep }\belowdisplayskip \abovedisplayskip {Chain $\alpha = \sqrt  {3}-1$ of $N_{12} = 989$ atoms.}\relax }}{3}{figure.caption.3}}
\newlabel{fig:width3}{{5}{3}{\small {Chain $\alpha = \sqrt {3}-1$ of $N_{12} = 989$ atoms.}\relax }{figure.caption.3}{}}
\newlabel{eq:limitcriterion}{{10}{3}{Transient and stable gaps}{equation.3.10}{}}
\newlabel{eq:overlapcriterion}{{11}{3}{Transient and stable gaps}{equation.3.11}{}}
\abx@aux@cite{Luck}
\abx@aux@segm{0}{0}{Luck}
\abx@aux@cite{Levy2015}
\abx@aux@segm{0}{0}{Levy2015}
\abx@aux@cite{Zijlstra}
\abx@aux@segm{0}{0}{Zijlstra}
\abx@aux@cite{penrosegaps}
\abx@aux@segm{0}{0}{penrosegaps}
