<?xml version="1.0" encoding="UTF-8"?>
<svg xmlns="http://www.w3.org/2000/svg" xmlns:xlink="http://www.w3.org/1999/xlink" width="200pt" height="200pt" viewBox="0 0 200 200" version="1.1">
<g id="surface25">
<path style=" stroke:none;fill-rule:nonzero;fill:rgb(0%,40.784314%,54.509804%);fill-opacity:1;" d="M 170.710938 129.289062 L 241.421875 200 L 100 200 Z M 170.710938 129.289062 L 170.710938 29.289062 L 70.710938 129.289062 Z M 241.421875 100 L 241.421875 200 L 341.421875 100 Z M 241.421875 100 L 170.710938 29.289062 L 312.132812 29.289062 Z M 241.421875 100 "/>
<path style="fill:none;stroke-width:0.05;stroke-linecap:butt;stroke-linejoin:round;stroke:rgb(20%,20%,20%);stroke-opacity:1;stroke-miterlimit:10;" d="M 0 0 L 0.707107 0 L 1.207109 0.500002 L 0.500002 0.500002 Z M 1.70711 0.707107 L 2.414217 0.707107 L 2.914219 1.207109 L 2.207112 1.207109 Z M 1.207109 1.207109 L 1.207109 0.500002 L 1.70711 0 L 1.70711 0.707107 Z M 0.707107 0 L 1.207109 0.500002 L 1.70711 0 M 0.500002 0.500002 L 1.207109 0.500002 L 1.207109 1.207109 M 2.414217 0.707107 L 1.70711 0.707107 L 1.70711 0 M 2.207112 1.207109 L 1.70711 0.707107 L 1.207109 1.207109 " transform="matrix(141.421356,0,0,-141.421356,0,200)"/>
</g>
</svg>
