<?xml version="1.0" encoding="UTF-8"?>
<svg xmlns="http://www.w3.org/2000/svg" xmlns:xlink="http://www.w3.org/1999/xlink" width="200pt" height="200pt" viewBox="0 0 200 200" version="1.1">
<g id="surface16">
<path style=" stroke:none;fill-rule:nonzero;fill:rgb(0%,40.784314%,54.509804%);fill-opacity:1;" d="M 170.710938 129.289062 L 241.421875 200 L 100 200 Z M 170.710938 129.289062 L 170.710938 29.289062 L 70.710938 129.289062 Z M 170.710938 29.289062 L 241.421875 -41.421875 L 241.421875 100 Z M 70.710938 29.289062 L 0 -41.421875 L 0 100 Z M 70.710938 29.289062 L 170.710938 29.289062 L 70.710938 129.289062 Z M 170.710938 29.289062 L 241.421875 -41.421875 L 100 -41.421875 Z M 170.710938 29.289062 "/>
<path style="fill:none;stroke-width:0.05;stroke-linecap:butt;stroke-linejoin:round;stroke:rgb(20%,20%,20%);stroke-opacity:1;stroke-miterlimit:10;" d="M 1.70711 0 L 1.207109 0.500002 L 1.207109 1.207109 L 1.70711 0.707107 Z M 1.207109 0.500002 L 0.707107 0 L 0 0 L 0.500002 0.500002 Z M 0.707107 0 L 1.207109 0.500002 L 1.70711 0 M 0.500002 0.500002 L 1.207109 0.500002 L 1.207109 1.207109 M 1.70711 0.707107 L 1.207109 1.207109 L 1.70711 1.70711 M 0 1.70711 L 0.500002 1.207109 L 1.207109 1.207109 L 0.707107 1.70711 Z M 0.500002 1.207109 L 0 0.707107 L 0 0 L 0.500002 0.500002 Z M 0 0.707107 L 0.500002 1.207109 L 0 1.70711 M 0.500002 0.500002 L 0.500002 1.207109 L 1.207109 1.207109 M 0.707107 1.70711 L 1.207109 1.207109 L 1.70711 1.70711 " transform="matrix(141.421356,0,0,-141.421356,0,200)"/>
</g>
</svg>
